-------------------------------------------------------------------------------
Test set: org.apache.commons.lang3.LocaleUtilsTest
-------------------------------------------------------------------------------
Tests run: 13, Failures: 0, Errors: 0, Skipped: 0, Time elapsed: 0.001 sec
