-------------------------------------------------------------------------------
Test set: org.apache.commons.lang3.text.StrTokenizerTest
-------------------------------------------------------------------------------
Tests run: 55, Failures: 0, Errors: 0, Skipped: 0, Time elapsed: 0.003 sec
