-------------------------------------------------------------------------------
Test set: org.apache.commons.lang3.math.FractionTest
-------------------------------------------------------------------------------
Tests run: 25, Failures: 0, Errors: 0, Skipped: 0, Time elapsed: 0.05 sec
