-------------------------------------------------------------------------------
Test set: org.apache.commons.lang3.CharEncodingTest
-------------------------------------------------------------------------------
Tests run: 6, Failures: 0, Errors: 0, Skipped: 0, Time elapsed: 0.027 sec
