-------------------------------------------------------------------------------
Test set: org.apache.commons.lang3.CharSetTest
-------------------------------------------------------------------------------
Tests run: 14, Failures: 0, Errors: 0, Skipped: 0, Time elapsed: 0 sec
