-------------------------------------------------------------------------------
Test set: org.apache.commons.lang3.HashSetvBitSetTest
-------------------------------------------------------------------------------
Tests run: 2, Failures: 0, Errors: 0, Skipped: 0, Time elapsed: 0.655 sec
