-------------------------------------------------------------------------------
Test set: org.apache.commons.lang3.time.FastDateFormat_PrinterTest
-------------------------------------------------------------------------------
Tests run: 14, Failures: 0, Errors: 0, Skipped: 0, Time elapsed: 0.006 sec
