-------------------------------------------------------------------------------
Test set: org.apache.commons.lang3.mutable.MutableByteTest
-------------------------------------------------------------------------------
Tests run: 17, Failures: 0, Errors: 0, Skipped: 0, Time elapsed: 0 sec
