<?xml version="1.0" encoding="UTF-8" ?>
<testsuite failures="0" time="0" errors="0" skipped="0" tests="13" name="org.apache.commons.lang3.ArrayUtilsAddTest">
  <properties>
    <property name="java.runtime.name" value="Java(TM) SE Runtime Environment"/>
    <property name="sun.boot.library.path" value="C:\Program Files\Java\jdk1.6.0_41\jre\bin"/>
    <property name="java.vm.version" value="20.14-b01"/>
    <property name="java.vm.vendor" value="Sun Microsystems Inc."/>
    <property name="java.vendor.url" value="http://java.sun.com/"/>
    <property name="path.separator" value=";"/>
    <property name="guice.disable.misplaced.annotation.check" value="true"/>
    <property name="java.vm.name" value="Java HotSpot(TM) 64-Bit Server VM"/>
    <property name="file.encoding.pkg" value="sun.io"/>
    <property name="user.country" value="IE"/>
    <property name="sun.java.launcher" value="SUN_STANDARD"/>
    <property name="sun.os.patch.level" value="Service Pack 1"/>
    <property name="java.vm.specification.name" value="Java Virtual Machine Specification"/>
    <property name="user.dir" value="C:\ait\labs\labs5\test5\commons-lang3"/>
    <property name="java.runtime.version" value="1.6.0_41-b02"/>
    <property name="java.awt.graphicsenv" value="sun.awt.Win32GraphicsEnvironment"/>
    <property name="java.endorsed.dirs" value="C:\Program Files\Java\jdk1.6.0_41\jre\lib\endorsed"/>
    <property name="os.arch" value="amd64"/>
    <property name="java.io.tmpdir" value="C:\Users\brennpad\AppData\Local\Temp\"/>
    <property name="line.separator" value="
"/>
    <property name="java.vm.specification.vendor" value="Sun Microsystems Inc."/>
    <property name="user.variant" value=""/>
    <property name="os.name" value="Windows 7"/>
    <property name="classworlds.conf" value="C:\playground\test1\.metadata\.plugins\org.eclipse.m2e.core\launches\m2conf5622742769305732809.tmp"/>
    <property name="sun.jnu.encoding" value="Cp1252"/>
    <property name="java.library.path" value="C:\Program Files\Java\jdk1.6.0_41\bin;C:\Windows\Sun\Java\bin;C:\Windows\system32;C:\Windows;C:\devtools\rubydev\bin;C:\Ruby192\bin;C:\Program Files\Common Files\Microsoft Shared\Windows Live;C:\Program Files (x86)\Common Files\Microsoft Shared\Windows Live;C:\devtools\org.tmatesoft.svn_1.3.8.standalone\svnkit-1.3.8\bin;C:\casDevEnv01\apache-maven-2.2.1\bin;C:\oraclexe\app\oracle\product\11.2.0\server\bin;C:\Program Files\RA2HP\;C:\Windows\system32;C:\Windows;C:\Windows\System32\Wbem;C:\Windows\System32\WindowsPowerShell\v1.0\;C:\Program Files\ActivIdentity\ActivClient\;C:\Program Files (x86)\ActivIdentity\ActivClient\;C:\Program Files\WIDCOMM\Bluetooth Software\;C:\Program Files\WIDCOMM\Bluetooth Software\syswow64;C:\Program Files (x86)\Git\cmd;C:\Program Files\SlikSvn\bin\;C:\Program Files (x86)\Windows Live\Shared;C:\Program Files\TortoiseSVN\bin;C:\Program Files\Code Collaborator Client;C:\Program Files (x86)\Groovy\Groovy-2.1.2\bin;C:\Python33;."/>
    <property name="java.specification.name" value="Java Platform API Specification"/>
    <property name="java.class.version" value="50.0"/>
    <property name="sun.management.compiler" value="HotSpot 64-Bit Tiered Compilers"/>
    <property name="os.version" value="6.1"/>
    <property name="user.home" value="C:\Users\brennpad"/>
    <property name="user.timezone" value="Europe/London"/>
    <property name="java.awt.printerjob" value="sun.awt.windows.WPrinterJob"/>
    <property name="file.encoding" value="Cp1252"/>
    <property name="java.specification.version" value="1.6"/>
    <property name="user.name" value="brennpad"/>
    <property name="java.class.path" value="/C:/devtools/eclipse-jee-juno-SR1-win32-x86_64/eclipse/configuration/org.eclipse.osgi/bundles/841/1/.cp/jars/plexus-classworlds-2.4.jar"/>
    <property name="java.vm.specification.version" value="1.0"/>
    <property name="sun.arch.data.model" value="64"/>
    <property name="java.home" value="C:\Program Files\Java\jdk1.6.0_41\jre"/>
    <property name="sun.java.command" value="org.codehaus.plexus.classworlds.launcher.Launcher -B -s C:\Users\brennpad\.m2\settings.xml install"/>
    <property name="java.specification.vendor" value="Sun Microsystems Inc."/>
    <property name="user.language" value="en"/>
    <property name="awt.toolkit" value="sun.awt.windows.WToolkit"/>
    <property name="java.vm.info" value="mixed mode"/>
    <property name="java.version" value="1.6.0_41"/>
    <property name="java.ext.dirs" value="C:\Program Files\Java\jdk1.6.0_41\jre\lib\ext;C:\Windows\Sun\Java\lib\ext"/>
    <property name="sun.boot.class.path" value="C:\Program Files\Java\jdk1.6.0_41\jre\lib\resources.jar;C:\Program Files\Java\jdk1.6.0_41\jre\lib\rt.jar;C:\Program Files\Java\jdk1.6.0_41\jre\lib\sunrsasign.jar;C:\Program Files\Java\jdk1.6.0_41\jre\lib\jsse.jar;C:\Program Files\Java\jdk1.6.0_41\jre\lib\jce.jar;C:\Program Files\Java\jdk1.6.0_41\jre\lib\charsets.jar;C:\Program Files\Java\jdk1.6.0_41\jre\lib\modules\jdk.boot.jar;C:\Program Files\Java\jdk1.6.0_41\jre\classes"/>
    <property name="java.vendor" value="Sun Microsystems Inc."/>
    <property name="maven.home" value="C:\ait\labs\labs5\test5\commons-lang3\EMBEDDED"/>
    <property name="file.separator" value="\"/>
    <property name="java.vendor.url.bug" value="http://java.sun.com/cgi-bin/bugreport.cgi"/>
    <property name="sun.cpu.endian" value="little"/>
    <property name="sun.io.unicode.encoding" value="UnicodeLittle"/>
    <property name="sun.desktop" value="windows"/>
    <property name="sun.cpu.isalist" value="amd64"/>
  </properties>
  <testcase time="0" classname="org.apache.commons.lang3.ArrayUtilsAddTest" name="testJira567"/>
  <testcase time="0" classname="org.apache.commons.lang3.ArrayUtilsAddTest" name="testAddObjectArrayInt"/>
  <testcase time="0" classname="org.apache.commons.lang3.ArrayUtilsAddTest" name="testLANG571"/>
  <testcase time="0" classname="org.apache.commons.lang3.ArrayUtilsAddTest" name="testAddObjectArrayToObjectArray"/>
  <testcase time="0" classname="org.apache.commons.lang3.ArrayUtilsAddTest" name="testAddObjectAtIndex"/>
  <testcase time="0" classname="org.apache.commons.lang3.ArrayUtilsAddTest" name="testAddObjectArrayFloat"/>
  <testcase time="0" classname="org.apache.commons.lang3.ArrayUtilsAddTest" name="testAddObjectArrayShort"/>
  <testcase time="0" classname="org.apache.commons.lang3.ArrayUtilsAddTest" name="testAddObjectArrayByte"/>
  <testcase time="0" classname="org.apache.commons.lang3.ArrayUtilsAddTest" name="testAddObjectArrayChar"/>
  <testcase time="0" classname="org.apache.commons.lang3.ArrayUtilsAddTest" name="testAddObjectArrayLong"/>
  <testcase time="0" classname="org.apache.commons.lang3.ArrayUtilsAddTest" name="testAddObjectArrayBoolean"/>
  <testcase time="0" classname="org.apache.commons.lang3.ArrayUtilsAddTest" name="testAddObjectArrayDouble"/>
  <testcase time="0" classname="org.apache.commons.lang3.ArrayUtilsAddTest" name="testAddObjectArrayObject"/>
</testsuite>